<svg width="269" height="134" viewBox="0 0 269 134" fill="none" xmlns="http://www.w3.org/2000/svg">
<path d="M241.298 61.2984C232.672 72.3215 224 99.6214 234.97 106.338C254.521 118.307 255.391 83.1163 240.812 89.7987" stroke="#E5E5E5" stroke-linecap="round" stroke-linejoin="round"/>
<path d="M201.583 27.3962C190.416 27.8962 168.882 21.5 170.083 10.3962C172.083 -8.10375 196.083 4.89622 183.083 13.8962" stroke="#E5E5E5" stroke-linecap="round" stroke-linejoin="round"/>
<path d="M209.291 36.742C186.791 40.9087 134.9 44.8788 127.791 19.742C121.5 -2.5 157.791 2.74201 142.791 19.742" stroke="#E5E5E5" stroke-linecap="round" stroke-linejoin="round"/>
<path d="M224.719 57.5956C213.711 63.4548 194.5 83 204.346 111.066C213.758 137.895 238 122 225.107 114.39" stroke="#E5E5E5" stroke-linecap="round" stroke-linejoin="round"/>
<path d="M212 49L214.687 29.4688L240.125 18.125L269 14L212 49Z" fill="#165581"/>
<path d="M212 49L217.437 35.6562L223 43L212 49Z" fill="#167098"/>
<path d="M269 14L200 20.5L214.344 30.5L269 14Z" fill="#29AAE2"/>
<path d="M217.437 35.6562L269 14L233.5 63L217.437 35.6562Z" fill="#29AAE2"/>
<path d="M204.764 48.9999C118.266 69.1006 127 21.7284 59.9996 39.9999C23.5795 49.932 14.9996 81.9999 26.3052 97.4779C37.6108 112.956 62.9999 123.855 128 97.4779C182 75.5648 183.478 121.497 168 128" stroke="#29AAE2" stroke-linecap="round" stroke-linejoin="round" stroke-dasharray="6 6"/>
<circle cx="159.5" cy="131.5" r="2.5" fill="#29AAE2"/>
<path d="M81.5141 60.9006C76.0255 61.1619 74.2177 66.4546 73.9999 69.0682C92.034 72.9887 94.3645 61.9896 93.2755 56C91.642 57.5246 87.0028 60.6392 81.5141 60.9006Z" fill="#EFCA18"/>
<path d="M74.3265 69.0682C75.3067 67.5436 78.5737 64.233 83.801 63.1875C89.0283 62.1421 90.7707 60.5739 90.9885 59.9205" stroke="white" stroke-width="0.5" stroke-linecap="round" stroke-linejoin="round"/>
<path d="M11.5465 90.3548C15.4458 92.2842 15.0797 96.6972 14.4093 98.6625C0.0823339 95.7904 1.87801 87.0715 4.56671 83.0711C5.26859 84.6951 7.64719 88.4253 11.5465 90.3548Z" fill="#165581"/>
<path d="M14.1722 98.5589C13.9444 97.1421 12.6235 93.7046 9.16236 91.2891C5.70122 88.8736 4.93414 87.1836 4.98323 86.6405" stroke="white" stroke-width="0.5" stroke-linecap="round" stroke-linejoin="round"/>
<path d="M59.0441 70.5084C63.3899 70.71 64.8264 74.8987 65.0013 76.9678C50.7267 80.0893 48.8708 71.3831 49.7273 66.6398C51.0221 67.8454 54.6982 70.3068 59.0441 70.5084Z" fill="#165581"/>
<path d="M64.7428 76.9681C63.9653 75.7619 61.3754 73.1439 57.2357 72.3213C53.096 71.4986 51.7149 70.2587 51.5418 69.7416" stroke="white" stroke-width="0.5" stroke-linecap="round" stroke-linejoin="round"/>
<path d="M152.468 115.596C154.17 117.81 152.712 120.251 151.77 121.195C144.322 115.49 147.821 110.971 150.502 109.424C150.448 110.559 150.765 113.382 152.468 115.596Z" fill="#165581"/>
<path d="M151.663 121.068C151.932 120.187 152.142 117.832 150.829 115.461C149.516 113.09 149.552 111.899 149.734 111.6" stroke="white" stroke-width="0.5" stroke-linecap="round" stroke-linejoin="round"/>
<path d="M35.7641 11.1746C39.3196 11.3439 40.4906 14.7724 40.6317 16.4655C28.9493 19.0051 27.4397 11.88 28.1451 8C29.2033 8.98764 32.2085 11.0053 35.7641 11.1746Z" fill="#EFCA18"/>
<path d="M40.4202 16.4655C39.7853 15.4779 37.6689 13.3333 34.2827 12.656C30.8965 11.9788 29.7678 10.9629 29.6267 10.5397" stroke="white" stroke-width="0.5" stroke-linecap="round" stroke-linejoin="round"/>
<path d="M137.284 123.24C140.41 121.539 143.191 123.861 144.191 125.235C135.525 133.471 130.535 128.165 129.124 124.483C130.541 124.777 134.157 124.942 137.284 123.24Z" fill="#EFCA18"/>
<path d="M144.01 125.345C142.955 124.831 140.032 124.096 136.787 125.276C133.541 126.455 132.049 126.173 131.709 125.884" stroke="white" stroke-width="0.5" stroke-linecap="round" stroke-linejoin="round"/>
<path d="M82.1885 17.0893C83.8236 20.2511 81.4433 22.9824 80.0488 23.9529C71.9972 15.1155 77.4069 10.2388 81.1181 8.90512C80.7937 10.3158 80.5535 13.9275 82.1885 17.0893Z" fill="#165581"/>
<path d="M79.9428 23.7698C80.4794 22.7254 81.2748 19.8193 80.1642 16.5495C79.0535 13.2798 79.3671 11.7939 79.6627 11.4597" stroke="white" stroke-width="0.5" stroke-linecap="round" stroke-linejoin="round"/>
<path d="M145 44H34C39.2752 28.6098 51.5842 30.8834 57.0792 33.9439C55.2475 32.778 52.991 30.5466 57.0792 26.074C61.1674 21.6013 72.4653 23.8879 72.4653 23.8879C77.7772 19.9529 89.9396 9.37216 104.886 14.269C119.833 19.1659 120.272 31.1749 118.624 36.5673C119.723 34.0897 123.899 29.3968 131.812 30.4462C139.725 31.4955 143.901 39.9193 145 44Z" fill="#29AAE2" fill-opacity="0.17"/>
<path d="M179 77H100C103.754 66.078 112.515 67.6914 116.426 69.8634C115.122 69.036 113.516 67.4525 116.426 64.2783C119.335 61.1041 127.376 62.7269 127.376 62.7269C131.157 59.9343 139.813 52.4254 150.45 55.9006C161.088 59.3758 161.401 67.8983 160.228 71.7251C161.01 69.9669 163.982 66.6365 169.614 67.3812C175.246 68.1258 178.218 74.104 179 77Z" fill="#29AAE2" fill-opacity="0.17"/>
<path d="M81 118H28C30.5188 111.05 36.396 112.076 39.0198 113.459C38.1452 112.932 37.0678 111.924 39.0198 109.904C40.9718 107.884 46.3663 108.917 46.3663 108.917C48.9026 107.14 54.7099 102.362 61.8465 104.573C68.9832 106.785 69.1931 112.208 68.4059 114.643C68.9307 113.524 70.9248 111.405 74.703 111.879C78.4812 112.353 80.4753 116.157 81 118Z" fill="#29AAE2" fill-opacity="0.17"/>
</svg>
