<svg width="13" height="13" viewBox="0 0 13 13" fill="none" xmlns="http://www.w3.org/2000/svg">
<path d="M6.5 8.06839C8.5913 8.06839 10.3011 6.35861 10.3011 4.25318C10.3011 2.13361 8.5913 0.423828 6.5 0.423828C4.4087 0.423828 2.69891 2.13361 2.69891 4.23905C2.69891 6.35861 4.4087 8.06839 6.5 8.06839ZM6.5 1.55426C7.96956 1.55426 9.17065 2.75535 9.17065 4.23905C9.17065 5.72274 7.96956 6.92383 6.5 6.92383C5.03043 6.92383 3.82935 5.72274 3.82935 4.23905C3.82935 2.75535 5.03043 1.55426 6.5 1.55426ZM8.2663 8.43578C8.08261 8.37926 7.87065 8.42165 7.72935 8.54883L6.5 9.59448L5.27065 8.54883C5.11522 8.42165 4.91739 8.37926 4.7337 8.43578C3.94239 8.69013 0 10.0467 0 12.0108C0 12.3217 0.254348 12.576 0.565217 12.576H12.4348C12.7457 12.576 13 12.3217 13 12.0108C13 10.0467 9.05761 8.69013 8.2663 8.43578ZM1.42717 11.4456C2.04891 10.7814 3.54674 10.0467 4.79022 9.62274L6.13261 10.7673C6.34457 10.951 6.65543 10.951 6.86739 10.7673L8.20978 9.62274C9.45326 10.0608 10.9511 10.7956 11.5728 11.4456H1.42717Z" fill="#29AAE2"/>
</svg>
